rank_test_score,mean_train_score,mean_test_score,std_test_score,param_activation,param_architecture,param_optimizer
1,0.8795,0.8650,0.0164,relu,200-150-100-50,adam
2,0.8764,0.8609,0.0204,relu,200-150-100-50-30,adam
3,0.8686,0.8577,0.0180,relu,200-100-50-30,adam
4,0.8629,0.8463,0.0322,relu,200-100-50,adam
5,0.8510,0.8422,0.0198,relu,50-50-50-50,adam
6,0.8536,0.8390,0.0128,relu,128-64-32,adam
7,0.8219,0.8058,0.0295,relu,128-128,adam
8,0.8069,0.7954,0.0184,relu,128-64,adam
9,0.7850,0.7736,0.0169,relu,100-50,adam
10,0.7876,0.7705,0.0191,relu,20-20-20-20,adam
11,0.7679,0.7612,0.0191,relu,128,adam
