rank_test_score,mean_train_score,mean_test_score,std_test_score,param_activation,param_architecture,param_optimizer
1,0.9019,0.8941,0.0334,tanh,200-150-100-50,adam
2,0.8728,0.8577,0.0165,tanh,200-150-100-50,adamax
3,0.8728,0.8546,0.0179,linear,200-150-100-50,adamax
4,0.8655,0.8536,0.0208,relu,200-150-100-50,adamax
5,0.8686,0.8494,0.0039,relu,200-150-100-50,adam
6,0.8598,0.8432,0.0742,linear,200-150-100-50,adam
7,0.8484,0.8359,0.0469,tanh,200-150-100-50,rmsprop
8,0.8084,0.8027,0.0496,relu,200-150-100-50,nadam
9,0.8178,0.7996,0.0332,tanh,200-150-100-50,nadam
10,0.7601,0.7570,0.1499,linear,200-150-100-50,rmsprop
11,0.7487,0.7456,0.0222,linear,200-150-100-50,sgd
12,0.7243,0.7165,0.0051,tanh,200-150-100-50,sgd
13,0.7020,0.6771,0.1132,relu,200-150-100-50,rmsprop
14,0.6724,0.6729,0.2460,linear,200-150-100-50,nadam
15,0.6677,0.6594,0.0528,sigmoid,200-150-100-50,nadam
16,0.6184,0.6075,0.0111,sigmoid,200-150-100-50,rmsprop
17,0.5753,0.5607,0.0697,sigmoid,200-150-100-50,adam
18,0.5000,0.4984,0.0117,relu,200-150-100-50,sgd
19,0.5067,0.4964,0.0505,sigmoid,200-150-100-50,adamax
20,0.3219,0.3219,0.0039,sigmoid,200-150-100-50,sgd
